[
  {
    "Today": [
      {
        "displayName": "Active Properties",
        "value": "5"
      },
      {
        "displayName": "Active Internet Users",
        "value": "0"
      },
      {
        "displayName": "GB Usage",
        "value": "0.00"
      }
    ],
    "Overview": {
      "popertyType": [
        "Hotel",
        "Student Accommodation",
        "Residential"
      ],
      "overviewbox": [
        "Total # of Accounts Activated",
        "Total # of Devices",
        "GB Usage Total"
      ]
    },
    "Group": {
      "Name": "ActiveG'",
      "Email": "my-new-test-group@io.co.za",
      "Portal": "IO Digital"
    },
    "Properties": {
      "PropertyName": "My New Test Group",
      "PropertyType": "My New Test Group",
      "ExternalReference": "tester",
      "DefaultPackage": "10GB / 10Mbps",
      "StreetAddress": "tulip gardens",
      "City":"midrand",
      "ZipCode": "1686",
      "Country": "South Africa",
      "Email": "tester@gmail.com",
      "GMacAddress": "10.13.13.6",
      "GIPadress": "10.13.13.6",
      "DNSname": "test",
      "GLogin": "users",
      "GPassord": "password",
      "IHost": "10.20.30",
      "IPackage": "10GB / 10Mbps",
      "IPort": "4040",
      "ISalesOutlet": "midrand"


    },
   "viewport": "macbook-15"
  }
]
