[
  {
    "description": "    Feature Description",
    "keyword": "Feature",
    "name": "ProtectPlus",
    "line": 1,
    "id": "protectplus",
    "tags": [],
    "uri": "ProtectPlus.feature",
    "elements": [
      {
        "id": "protectplus;hair-straigtners-beauty-products-with-protect-plus-option",
        "keyword": "Scenario",
        "line": 13,
        "name": "Hair Straigtners Beauty Products with protect plus option",
        "tags": [],
        "type": "scenario",
        "steps": [
          {
            "arguments": [],
            "keyword": "Given ",
            "line": 6,
            "name": "I have logged on to JL and selected product 'https://www.integration.project4.com/dyson-corrale-cord-free-hair-straighteners/p4925451'",
            "result": {
              "status": "passed",
              "duration": 3803000000
            }
          },
          {
            "arguments": [],
            "keyword": "And ",
            "line": 7,
            "name": "verify the product opened is correct 'Dyson Corrale™ Cord-Free Hair Straighteners'",
            "result": {
              "status": "passed",
              "duration": 42000000
            }
          },
          {
            "arguments": [],
            "keyword": "And ",
            "line": 8,
            "name": "validate ProtectPlus description is visible on the page",
            "result": {
              "status": "passed",
              "duration": 49000000
            }
          },
          {
            "arguments": [],
            "keyword": "When ",
            "line": 9,
            "name": "user selects protect plus checkbox",
            "result": {
              "status": "passed",
              "duration": 110000000
            }
          },
          {
            "arguments": [],
            "keyword": "Then ",
            "line": 10,
            "name": "information of protect plus content is visible",
            "result": {
              "status": "passed",
              "duration": 30000000
            }
          }
        ]
      },
      {
        "id": "protectplus;hair-straigtners-beauty-products-with-protect-plus-option",
        "keyword": "Scenario",
        "line": 14,
        "name": "Hair Straigtners Beauty Products with protect plus option",
        "tags": [],
        "type": "scenario",
        "steps": [
          {
            "arguments": [],
            "keyword": "Given ",
            "line": 6,
            "name": "I have logged on to JL and selected product 'https://www.integration.project4.com/ghd-gold-hair-straightener-black/p3447269'",
            "result": {
              "status": "passed",
              "duration": 3305000000
            }
          },
          {
            "arguments": [],
            "keyword": "And ",
            "line": 7,
            "name": "verify the product opened is correct 'ghd Gold Hair Straightener, Black'",
            "result": {
              "status": "passed",
              "duration": 114000000
            }
          },
          {
            "arguments": [],
            "keyword": "And ",
            "line": 8,
            "name": "validate ProtectPlus description is visible on the page",
            "result": {
              "status": "passed",
              "duration": 196000000
            }
          },
          {
            "arguments": [],
            "keyword": "When ",
            "line": 9,
            "name": "user selects protect plus checkbox",
            "result": {
              "status": "passed",
              "duration": 131000000
            }
          },
          {
            "arguments": [],
            "keyword": "Then ",
            "line": 10,
            "name": "information of protect plus content is visible",
            "result": {
              "status": "passed",
              "duration": 26000000
            }
          }
        ]
      },
      {
        "id": "protectplus;hair-straigtners-beauty-products-with-protect-plus-option",
        "keyword": "Scenario",
        "line": 15,
        "name": "Hair Straigtners Beauty Products with protect plus option",
        "tags": [],
        "type": "scenario",
        "steps": [
          {
            "arguments": [],
            "keyword": "Given ",
            "line": 6,
            "name": "I have logged on to JL and selected product 'https://www.integration.project4.com/cloud-nine-the-touch/black/p1647094'",
            "result": {
              "status": "passed",
              "duration": 3164000000
            }
          },
          {
            "arguments": [],
            "keyword": "And ",
            "line": 7,
            "name": "verify the product opened is correct 'Cloud Nine The Touch, Black'",
            "result": {
              "status": "passed",
              "duration": 60000000
            }
          },
          {
            "arguments": [],
            "keyword": "And ",
            "line": 8,
            "name": "validate ProtectPlus description is visible on the page",
            "result": {
              "status": "passed",
              "duration": 50000000
            }
          },
          {
            "arguments": [],
            "keyword": "When ",
            "line": 9,
            "name": "user selects protect plus checkbox",
            "result": {
              "status": "passed",
              "duration": 164000000
            }
          },
          {
            "arguments": [],
            "keyword": "Then ",
            "line": 10,
            "name": "information of protect plus content is visible",
            "result": {
              "status": "passed",
              "duration": 29000000
            }
          }
        ]
      },
      {
        "id": "protectplus;hair-dryers-beauty-products-with-protect-plus-option",
        "keyword": "Scenario",
        "line": 27,
        "name": "Hair Dryers Beauty Products with protect plus option",
        "tags": [],
        "type": "scenario",
        "steps": [
          {
            "arguments": [],
            "keyword": "Given ",
            "line": 20,
            "name": "I have logged on to JL and selected product 'https://www.integration.project4.com/dyson-hd03-supersonic-hair-dryer/fuschia/p5077539'",
            "result": {
              "status": "passed",
              "duration": 3496000000
            }
          },
          {
            "arguments": [],
            "keyword": "And ",
            "line": 21,
            "name": "verify the product opened is correct 'Dyson HD03 Supersonic Hair Dryer, Fuschia'",
            "result": {
              "status": "passed",
              "duration": 110000000
            }
          },
          {
            "arguments": [],
            "keyword": "And ",
            "line": 22,
            "name": "validate ProtectPlus description is visible on the page",
            "result": {
              "status": "passed",
              "duration": 121000000
            }
          },
          {
            "arguments": [],
            "keyword": "When ",
            "line": 23,
            "name": "user selects protect plus checkbox",
            "result": {
              "status": "passed",
              "duration": 132000000
            }
          },
          {
            "arguments": [],
            "keyword": "Then ",
            "line": 24,
            "name": "information of protect plus content is visible",
            "result": {
              "status": "passed",
              "duration": 29000000
            }
          }
        ]
      },
      {
        "id": "protectplus;hair-dryers-beauty-products-with-protect-plus-option",
        "keyword": "Scenario",
        "line": 28,
        "name": "Hair Dryers Beauty Products with protect plus option",
        "tags": [],
        "type": "scenario",
        "steps": [
          {
            "arguments": [],
            "keyword": "Given ",
            "line": 20,
            "name": "I have logged on to JL and selected product 'https://www.integration.project4.com/ghd-air-hairdryer/black/p3350251'",
            "result": {
              "status": "passed",
              "duration": 2972000000
            }
          },
          {
            "arguments": [],
            "keyword": "And ",
            "line": 21,
            "name": "verify the product opened is correct 'ghd Air® Hairdryer, Black'",
            "result": {
              "status": "passed",
              "duration": 23000000
            }
          },
          {
            "arguments": [],
            "keyword": "And ",
            "line": 22,
            "name": "validate ProtectPlus description is visible on the page",
            "result": {
              "status": "passed",
              "duration": 48000000
            }
          },
          {
            "arguments": [],
            "keyword": "When ",
            "line": 23,
            "name": "user selects protect plus checkbox",
            "result": {
              "status": "passed",
              "duration": 123000000
            }
          },
          {
            "arguments": [],
            "keyword": "Then ",
            "line": 24,
            "name": "information of protect plus content is visible",
            "result": {
              "status": "passed",
              "duration": 28000000
            }
          }
        ]
      },
      {
        "id": "protectplus;hair-dryers-beauty-products-with-protect-plus-option",
        "keyword": "Scenario",
        "line": 29,
        "name": "Hair Dryers Beauty Products with protect plus option",
        "tags": [],
        "type": "scenario",
        "steps": [
          {
            "arguments": [],
            "keyword": "Given ",
            "line": 20,
            "name": "I have logged on to JL and selected product 'https://www.integration.project4.com/ghd-air-hair-drying-kit/p939222'",
            "result": {
              "status": "passed",
              "duration": 3106000000
            }
          },
          {
            "arguments": [],
            "keyword": "And ",
            "line": 21,
            "name": "verify the product opened is correct 'ghd Air Hair Drying Kit'",
            "result": {
              "status": "passed",
              "duration": 39000000
            }
          },
          {
            "arguments": [],
            "keyword": "And ",
            "line": 22,
            "name": "validate ProtectPlus description is visible on the page",
            "result": {
              "status": "passed",
              "duration": 50000000
            }
          },
          {
            "arguments": [],
            "keyword": "When ",
            "line": 23,
            "name": "user selects protect plus checkbox",
            "result": {
              "status": "passed",
              "duration": 127000000
            }
          },
          {
            "arguments": [],
            "keyword": "Then ",
            "line": 24,
            "name": "information of protect plus content is visible",
            "result": {
              "status": "passed",
              "duration": 51000000
            }
          }
        ]
      },
      {
        "id": "protectplus;hair-dryers-beauty-products-with-protect-plus-option",
        "keyword": "Scenario",
        "line": 30,
        "name": "Hair Dryers Beauty Products with protect plus option",
        "tags": [],
        "type": "scenario",
        "steps": [
          {
            "arguments": [],
            "keyword": "Given ",
            "line": 20,
            "name": "I have logged on to JL and selected product 'https://www.integration.project4.com/cloud-nine-airshot-hair-dryer/p5085547'",
            "result": {
              "status": "passed",
              "duration": 3434000000
            }
          },
          {
            "arguments": [],
            "keyword": "And ",
            "line": 21,
            "name": "verify the product opened is correct 'Cloud Nine Airshot Hair Dryer'",
            "result": {
              "status": "passed",
              "duration": 36000000
            }
          },
          {
            "arguments": [],
            "keyword": "And ",
            "line": 22,
            "name": "validate ProtectPlus description is visible on the page",
            "result": {
              "status": "passed",
              "duration": 47000000
            }
          },
          {
            "arguments": [],
            "keyword": "When ",
            "line": 23,
            "name": "user selects protect plus checkbox",
            "result": {
              "status": "passed",
              "duration": 118000000
            }
          },
          {
            "arguments": [],
            "keyword": "Then ",
            "line": 24,
            "name": "information of protect plus content is visible",
            "result": {
              "status": "passed",
              "duration": 26000000
            }
          }
        ]
      },
      {
        "id": "protectplus;protect-plus-validating-checkbox-selects-and-unselects",
        "keyword": "Scenario",
        "line": 44,
        "name": "Protect plus validating checkbox selects and unselects",
        "tags": [],
        "type": "scenario",
        "steps": [
          {
            "arguments": [],
            "keyword": "Given ",
            "line": 35,
            "name": "I have logged on to JL and selected product 'https://www.integration.project4.com/dyson-hd03-supersonic-hair-dryer/fuschia/p5077539'",
            "result": {
              "status": "passed",
              "duration": 2977000000
            }
          },
          {
            "arguments": [],
            "keyword": "And ",
            "line": 36,
            "name": "verify the product opened is correct 'Dyson HD03 Supersonic Hair Dryer, Fuschia'",
            "result": {
              "status": "passed",
              "duration": 61000000
            }
          },
          {
            "arguments": [],
            "keyword": "And ",
            "line": 37,
            "name": "validate ProtectPlus description is visible on the page",
            "result": {
              "status": "passed",
              "duration": 53000000
            }
          },
          {
            "arguments": [],
            "keyword": "When ",
            "line": 38,
            "name": "user selects protect plus checkbox",
            "result": {
              "status": "passed",
              "duration": 111000000
            }
          },
          {
            "arguments": [],
            "keyword": "Then ",
            "line": 39,
            "name": "information of protect plus content is visible",
            "result": {
              "status": "passed",
              "duration": 26000000
            }
          },
          {
            "arguments": [],
            "keyword": "When ",
            "line": 40,
            "name": "user Unselects protect plus checkbox",
            "result": {
              "status": "passed",
              "duration": 108000000
            }
          },
          {
            "arguments": [],
            "keyword": "And ",
            "line": 41,
            "name": "validate ProtectPlus description is visible on the page",
            "result": {
              "status": "passed",
              "duration": 79000000
            }
          }
        ]
      },
      {
        "id": "protectplus;validating-adding-product-to-basket-with-protect-plus-option-selected",
        "keyword": "Scenario",
        "line": 60,
        "name": "Validating Adding product to basket with Protect plus option selected",
        "tags": [],
        "type": "scenario",
        "steps": [
          {
            "arguments": [],
            "keyword": "Given ",
            "line": 48,
            "name": "I have logged on to JL and selected product 'https://www.integration.project4.com/ghd-gold-hair-straightener-black/p3447269'",
            "result": {
              "status": "passed",
              "duration": 3839000000
            }
          },
          {
            "arguments": [],
            "keyword": "And ",
            "line": 49,
            "name": "verify the product opened is correct 'ghd Gold Hair Straightener, Black'",
            "result": {
              "status": "passed",
              "duration": 56000000
            }
          },
          {
            "arguments": [],
            "keyword": "And ",
            "line": 50,
            "name": "validate ProtectPlus description is visible on the page",
            "result": {
              "status": "passed",
              "duration": 61000000
            }
          },
          {
            "arguments": [],
            "keyword": "And ",
            "line": 51,
            "name": "user selects protect plus checkbox",
            "result": {
              "status": "passed",
              "duration": 122000000
            }
          },
          {
            "arguments": [],
            "keyword": "When ",
            "line": 52,
            "name": "user click on Add to your basket",
            "result": {
              "status": "passed",
              "duration": 2417000000
            }
          },
          {
            "arguments": [],
            "keyword": "Then ",
            "line": 53,
            "name": "Added to your basket confirmation box is open",
            "result": {
              "status": "passed",
              "duration": 91000000
            }
          },
          {
            "arguments": [],
            "keyword": "And ",
            "line": 54,
            "name": "Product is displayed in Added to your basket box 'ghd Gold Hair Straightener, Black'",
            "result": {
              "status": "passed",
              "duration": 42000000
            }
          },
          {
            "arguments": [],
            "keyword": "And ",
            "line": 55,
            "name": "ProtectPlus is also added to the box",
            "result": {
              "status": "passed",
              "duration": 37000000
            }
          }
        ]
      },
      {
        "id": "protectplus;validating-protect-plus-checkbox-by-selecting-hyper-links-of-accidental-damage",
        "keyword": "Scenario",
        "line": 72,
        "name": "validating Protect plus checkbox by selecting hyper links of accidental damage",
        "tags": [],
        "type": "scenario",
        "steps": [
          {
            "arguments": [],
            "keyword": "Given ",
            "line": 64,
            "name": "I have logged on to JL and selected product 'https://www.integration.project4.com/dyson-hd03-supersonic-hair-dryer/fuschia/p5077539'",
            "result": {
              "status": "passed",
              "duration": 2783000000
            }
          },
          {
            "arguments": [],
            "keyword": "And ",
            "line": 65,
            "name": "verify the product opened is correct 'Dyson HD03 Supersonic Hair Dryer, Fuschia'",
            "result": {
              "status": "passed",
              "duration": 36000000
            }
          },
          {
            "arguments": [],
            "keyword": "And ",
            "line": 66,
            "name": "validate ProtectPlus description is visible on the page",
            "result": {
              "status": "passed",
              "duration": 40000000
            }
          },
          {
            "arguments": [],
            "keyword": "And ",
            "line": 67,
            "name": "user selects protect plus checkbox",
            "result": {
              "status": "passed",
              "duration": 113000000
            }
          },
          {
            "arguments": [],
            "keyword": "When ",
            "line": 68,
            "name": "user clicks on Insurance Product Information hyper link in protect plus description",
            "result": {
              "status": "passed",
              "duration": 465000000
            }
          },
          {
            "arguments": [],
            "keyword": "Then ",
            "line": 69,
            "name": "protect plus checkbox is checked",
            "result": {
              "status": "passed",
              "duration": 49000000
            }
          }
        ]
      }
    ]
  }
]